RISCV Computer Architecture via Verilog/RISC-V Assembly Programming and Cycle Analysis for Bit Counting/24011949.vcd
$date
	Mon Jun 01 20:17:30 2026
$end
$version
	Icarus Verilog
$end
$timescale
	1ps
$end
$scope module testbench $end
$var wire 32 ! WriteData [31:0] $end
$var wire 1 " MemWrite $end
$var wire 32 # DataAdr [31:0] $end
$var reg 1 $ clk $end
$var reg 1 % reset $end
$var integer 32 & k [31:0] $end
$scope begin assign_loop[0] $end
$var parameter 2 ' i $end
$upscope $end
$scope begin assign_loop[1] $end
$var parameter 2 ( i $end
$upscope $end
$scope begin assign_loop[2] $end
$var parameter 3 ) i $end
$upscope $end
$scope begin assign_loop[3] $end
$var parameter 3 * i $end
$upscope $end
$scope begin assign_loop[4] $end
$var parameter 4 + i $end
$upscope $end
$scope begin assign_loop[5] $end
$var parameter 4 , i $end
$upscope $end
$scope begin assign_loop[6] $end
$var parameter 4 - i $end
$upscope $end
$scope begin assign_loop[7] $end
$var parameter 4 . i $end
$upscope $end
$scope begin assign_loop[8] $end
$var parameter 5 / i $end
$upscope $end
$scope begin assign_loop[9] $end
$var parameter 5 0 i $end
$upscope $end
$scope begin assign_loop[10] $end
$var parameter 5 1 i $end
$upscope $end
$scope begin assign_loop[11] $end
$var parameter 5 2 i $end
$upscope $end
$scope begin assign_loop[12] $end
$var parameter 5 3 i $end
$upscope $end
$scope begin assign_loop[13] $end
$var parameter 5 4 i $end
$upscope $end
$scope begin assign_loop[14] $end
$var parameter 5 5 i $end
$upscope $end
$scope begin assign_loop[15] $end
$var parameter 5 6 i $end
$upscope $end
$scope begin assign_loop[16] $end
$var parameter 6 7 i $end
$upscope $end
$scope begin assign_loop[17] $end
$var parameter 6 8 i $end
$upscope $end
$scope begin assign_loop[18] $end
$var parameter 6 9 i $end
$upscope $end
$scope begin assign_loop[19] $end
$var parameter 6 : i $end
$upscope $end
$scope module dut $end
$var wire 1 $ clk $end
$var wire 1 % reset $end
$var wire 32 ; WriteData [31:0] $end
$var wire 32 < ReadData [31:0] $end
$var wire 32 = PC [31:0] $end
$var wire 1 " MemWrite $end
$var wire 32 > Instr [31:0] $end
$var wire 32 ? DataAdr [31:0] $end
$scope module u_dmem $end
$var wire 1 $ clk $end
$var wire 32 @ rd [31:0] $end
$var wire 1 " we $end
$var wire 32 A wd [31:0] $end
$var wire 32 B a [31:0] $end
$upscope $end
$scope module u_imem $end
$var wire 32 C rd [31:0] $end
$var wire 32 D a [31:0] $end
$upscope $end
$scope module u_rvsingle $end
$var wire 32 E Instr [31:0] $end
$var wire 32 F ReadData [31:0] $end
$var wire 1 $ clk $end
$var wire 1 % reset $end
$var wire 1 G Zero $end
$var wire 32 H WriteData [31:0] $end
$var wire 2 I ResultSrc [1:0] $end
$var wire 1 J RegWrite $end
$var wire 1 K PCSrc $end
$var wire 32 L PC [31:0] $end
$var wire 1 " MemWrite $end
$var wire 1 M Jump $end
$var wire 2 N ImmSrc [1:0] $end
$var wire 1 O ALUSrc $end
$var wire 32 P ALUResult [31:0] $end
$var wire 3 Q ALUControl [2:0] $end
$scope module u_ctrl $end
$var wire 1 K PCSrc $end
$var wire 3 R funct3 [2:0] $end
$var wire 1 S funct7b5 $end
$var wire 7 T op [6:0] $end
$var wire 1 G Zero $end
$var wire 2 U ResultSrc [1:0] $end
$var wire 1 J RegWrite $end
$var wire 1 " MemWrite $end
$var wire 1 M Jump $end
$var wire 2 V ImmSrc [1:0] $end
$var wire 1 W Branch $end
$var wire 1 O ALUSrc $end
$var wire 2 X ALUOp [1:0] $end
$var wire 3 Y ALUControl [2:0] $end
$scope module u_ad $end
$var wire 1 Z RtypeSub $end
$var wire 3 [ funct3 [2:0] $end
$var wire 1 S funct7b5 $end
$var wire 1 \ opb5 $end
$var wire 2 ] ALUOp [1:0] $end
$var reg 3 ^ ALUControl [2:0] $end
$upscope $end
$scope module u_md $end
$var wire 7 _ op [6:0] $end
$var wire 2 ` ResultSrc [1:0] $end
$var wire 1 J RegWrite $end
$var wire 1 " MemWrite $end
$var wire 1 M Jump $end
$var wire 2 a ImmSrc [1:0] $end
$var wire 1 W Branch $end
$var wire 1 O ALUSrc $end
$var wire 2 b ALUOp [1:0] $end
$var reg 11 c controls [10:0] $end
$upscope $end
$upscope $end
$scope module u_dp $end
$var wire 3 d ALUControl [2:0] $end
$var wire 1 O ALUSrc $end
$var wire 2 e ImmSrc [1:0] $end
$var wire 32 f Instr [31:0] $end
$var wire 1 K PCSrc $end
$var wire 32 g ReadData [31:0] $end
$var wire 1 J RegWrite $end
$var wire 2 h ResultSrc [1:0] $end
$var wire 1 $ clk $end
$var wire 1 % reset $end
$var wire 1 G Zero $end
$var wire 32 i WriteData [31:0] $end
$var wire 32 j SrcB [31:0] $end
$var wire 32 k SrcA [31:0] $end
$var wire 32 l Result [31:0] $end
$var wire 32 m PCTarget [31:0] $end
$var wire 32 n PCPlus4 [31:0] $end
$var wire 32 o PCNext [31:0] $end
$var wire 32 p PC [31:0] $end
$var wire 32 q ImmExt [31:0] $end
$var wire 32 r ALUResult [31:0] $end
$scope module alu_inst $end
$var wire 3 s ctrl [2:0] $end
$var wire 1 G zero $end
$var wire 32 t b [31:0] $end
$var wire 32 u a [31:0] $end
$var reg 32 v y [31:0] $end
$upscope $end
$scope module ext $end
$var wire 2 w immsrc [1:0] $end
$var wire 32 x instr [31:0] $end
$var reg 32 y immext [31:0] $end
$upscope $end
$scope module pcadd4 $end
$var wire 32 z b [31:0] $end
$var wire 32 { y [31:0] $end
$var wire 32 | a [31:0] $end
$upscope $end
$scope module pcaddbranch $end
$var wire 32 } b [31:0] $end
$var wire 32 ~ y [31:0] $end
$var wire 32 !" a [31:0] $end
$upscope $end
$scope module pcmux $end
$var wire 32 "" d0 [31:0] $end
$var wire 32 #" d1 [31:0] $end
$var wire 1 K s $end
$var wire 32 $" y [31:0] $end
$var parameter 32 %" WIDTH $end
$upscope $end
$scope module pcreg $end
$var wire 1 $ clk $end
$var wire 32 &" d [31:0] $end
$var wire 1 % reset $end
$var parameter 32 '" WIDTH $end
$var reg 32 (" q [31:0] $end
$upscope $end
$scope module resultmux $end
$var wire 32 )" d0 [31:0] $end
$var wire 32 *" d1 [31:0] $end
$var wire 32 +" d2 [31:0] $end
$var wire 2 ," s [1:0] $end
$var wire 32 -" y [31:0] $end
$var parameter 32 ." WIDTH $end
$upscope $end
$scope module rf $end
$var wire 1 $ clk $end
$var wire 5 /" ra1 [4:0] $end
$var wire 5 0" ra2 [4:0] $end
$var wire 5 1" wa [4:0] $end
$var wire 32 2" wd [31:0] $end
$var wire 1 J we $end
$var wire 32 3" rd2 [31:0] $end
$var wire 32 4" rd1 [31:0] $end
$var integer 32 5" i [31:0] $end
$upscope $end
$scope module srcbmux $end
$var wire 32 6" d0 [31:0] $end
$var wire 32 7" d1 [31:0] $end
$var wire 1 O s $end
$var wire 32 8" y [31:0] $end
$var parameter 32 9" WIDTH $end
$upscope $end
$upscope $end
$upscope $end
$upscope $end
$upscope $end
$scope module testbench $end
$var reg 32 :" \ARRAY[0] [31:0] $end
$upscope $end
$scope module testbench $end
$var reg 32 ;" \COUNT[0] [31:0] $end
$upscope $end
$scope module testbench $end
$var reg 32 <" \ARRAY[1] [31:0] $end
$upscope $end
$scope module testbench $end
$var reg 32 =" \COUNT[1] [31:0] $end
$upscope $end
$scope module testbench $end
$var reg 32 >" \ARRAY[2] [31:0] $end
$upscope $end
$scope module testbench $end
$var reg 32 ?" \COUNT[2] [31:0] $end
$upscope $end
$scope module testbench $end
$var reg 32 @" \ARRAY[3] [31:0] $end
$upscope $end
$scope module testbench $end
$var reg 32 A" \COUNT[3] [31:0] $end
$upscope $end
$scope module testbench $end
$var reg 32 B" \ARRAY[4] [31:0] $end
$upscope $end
$scope module testbench $end
$var reg 32 C" \COUNT[4] [31:0] $end
$upscope $end
$scope module testbench $end
$var reg 32 D" \ARRAY[5] [31:0] $end
$upscope $end
$scope module testbench $end
$var reg 32 E" \COUNT[5] [31:0] $end
$upscope $end
$scope module testbench $end
$var reg 32 F" \ARRAY[6] [31:0] $end
$upscope $end
$scope module testbench $end
$var reg 32 G" \COUNT[6] [31:0] $end
$upscope $end
$scope module testbench $end
$var reg 32 H" \ARRAY[7] [31:0] $end
$upscope $end
$scope module testbench $end
$var reg 32 I" \COUNT[7] [31:0] $end
$upscope $end
$scope module testbench $end
$var reg 32 J" \ARRAY[8] [31:0] $end
$upscope $end
$scope module testbench $end
$var reg 32 K" \COUNT[8] [31:0] $end
$upscope $end
$scope module testbench $end
$var reg 32 L" \ARRAY[9] [31:0] $end
$upscope $end
$scope module testbench $end
$var reg 32 M" \COUNT[9] [31:0] $end
$upscope $end
$scope module testbench $end
$var reg 32 N" \ARRAY[10] [31:0] $end
$upscope $end
$scope module testbench $end
$var reg 32 O" \COUNT[10] [31:0] $end
$upscope $end
$scope module testbench $end
$var reg 32 P" \ARRAY[11] [31:0] $end
$upscope $end
$scope module testbench $end
$var reg 32 Q" \COUNT[11] [31:0] $end
$upscope $end
$scope module testbench $end
$var reg 32 R" \ARRAY[12] [31:0] $end
$upscope $end
$scope module testbench $end
$var reg 32 S" \COUNT[12] [31:0] $end
$upscope $end
$scope module testbench $end
$var reg 32 T" \ARRAY[13] [31:0] $end
$upscope $end
$scope module testbench $end
$var reg 32 U" \COUNT[13] [31:0] $end
$upscope $end
$scope module testbench $end
$var reg 32 V" \ARRAY[14] [31:0] $end
$upscope $end
$scope module testbench $end
$var reg 32 W" \COUNT[14] [31:0] $end
$upscope $end
$scope module testbench $end
$var reg 32 X" \ARRAY[15] [31:0] $end
$upscope $end
$scope module testbench $end
$var reg 32 Y" \COUNT[15] [31:0] $end
$upscope $end
$scope module testbench $end
$var reg 32 Z" \ARRAY[16] [31:0] $end
$upscope $end
$scope module testbench $end
$var reg 32 [" \COUNT[16] [31:0] $end
$upscope $end
$scope module testbench $end
$var reg 32 \" \ARRAY[17] [31:0] $end
$upscope $end
$scope module testbench $end
$var reg 32 ]" \COUNT[17] [31:0] $end
$upscope $end
$scope module testbench $end
$var reg 32 ^" \ARRAY[18] [31:0] $end
$upscope $end
$scope module testbench $end
$var reg 32 _" \COUNT[18] [31:0] $end
$upscope $end
$scope module testbench $end
$var reg 32 `" \ARRAY[19] [31:0] $end
$upscope $end
$scope module testbench $end
$var reg 32 a" \COUNT[19] [31:0] $end
$upscope $end
$enddefinitions $end
$comment Show the parameter values. $end
$dumpall
b100000 9"
b100000 ."
b100000 '"
b100000 %"
b10011 :
b10010 9
b10001 8
b10000 7
b1111 6
b1110 5
b1101 4
b1100 3
b1011 2
b1010 1
b1001 0
b1000 /
b111 .
b110 -
b101 ,
b100 +
b11 *
b10 )
b1 (
b0 '
$end
#0
$dumpvars
b0 a"
b11000000000000000000000000000011 `"
b0 _"
b11001101011101101110110100110000 ^"
b0 ]"
b10011000010100010011100100010100 \"
b0 ["
b100100101110110111101101001000 Z"
b0 Y"
b1101101100000001111100110011 X"
b0 W"
b10100101010100001001001000011110 V"
b0 U"
b10001100111011111111011100110001 T"
b0 S"
b11000111101101010010000101101001 R"
b0 Q"
b11111111111111111111111111111110 P"
b0 O"
b1111111111111111111111111111111 N"
b0 M"
b11111111111111111111111111111111 L"
b0 K"
b10011001100110011001100110011001 J"
b0 I"
b1101100100010010110010110010100 H"
b0 G"
b11011110110000101000011111011001 F"
b0 E"
b1010001110000000110010001100000 D"
b0 C"
b10000000000000000000000000000000 B"
b0 A"
b10000000000000000000000 @"
b0 ?"
b1000000000 >"
b0 ="
b1 <"
b0 ;"
b0 :"
b0 8"
b0 7"
b0 6"
b100000 5"
b0 4"
b0 3"
b0 2"
b1 1"
b0 0"
b0 /"
b0 -"
b0 ,"
b100 +"
b0 *"
b0 )"
b0 ("
b100 &"
b100 $"
b0 #"
b100 ""
b0 !"
b0 ~
b0 }
b0 |
b100 {
b100 z
b0 y
b10010011 x
b0 w
b0 v
b0 u
b0 t
b0 s
b0 r
b0 q
b0 p
b100 o
b100 n
b0 m
b0 l
b0 k
b0 j
b0 i
b0 h
b0 g
b10010011 f
b0 e
b0 d
b10010000100 c
b10 b
b0 a
b0 `
b10011 _
b0 ^
b10 ]
0\
b0 [
0Z
b0 Y
b10 X
0W
b0 V
b0 U
b10011 T
0S
b0 R
b0 Q
b0 P
1O
b0 N
0M
b0 L
0K
1J
b0 I
b0 H
1G
b0 F
b10010011 E
b0 D
b10010011 C
b0 B
b0 A
b0 @
b0 ?
b10010011 >
b0 =
b0 <
b0 ;
b10100 &
1%
0$
b0 #
0"
b0 !
$end
#5000
1$
#10000
0$
#15000
1$
#20000
0$
#22000
0%
#25000
b1010000 l
b1010000 -"
b1010000 2"
0G
b1010000 #
b1010000 ?
b1010000 B
b1010000 P
b1010000 r
b1010000 v
b1010000 )"
b1010000 j
b1010000 t
b1010000 8"
b10000 0"
b10 1"
b1010000 q
b1010000 y
b1010000 }
b1010000 7"
b1000 o
b1000 $"
b1000 &"
b101000000000000000100010011 >
b101000000000000000100010011 C
b101000000000000000100010011 E
b101000000000000000100010011 f
b101000000000000000100010011 x
b1010100 m
b1010100 ~
b1010100 #"
b1000 n
b1000 {
b1000 ""
b1000 +"
b100 =
b100 D
b100 L
b100 p
b100 |
b100 !"
b100 ("
1$
#30000
0$
#35000
b10100 l
b10100 -"
b10100 2"
b1010001110000000110010001100000 <
b1010001110000000110010001100000 @
b1010001110000000110010001100000 F
b1010001110000000110010001100000 g
b1010001110000000110010001100000 *"
b10100 #
b10100 ?
b10100 B
b10100 P
b10100 r
b10100 v
b10100 )"
b10100 j
b10100 t
b10100 8"
b10100 0"
b11 1"
b10100 q
b10100 y
b10100 }
b10100 7"
b1100 o
b1100 $"
b1100 &"
b1010000000000000110010011 >
b1010000000000000110010011 C
b1010000000000000110010011 E
b1010000000000000110010011 f
b1010000000000000110010011 x
b11100 m
b11100 ~
b11100 #"
b1100 n
b1100 {
b1100 ""
b1100 +"
b1000 =
b1000 D
b1000 L
b1000 p
b1000 |
b1000 !"
b1000 ("
1$
#40000
0$
#45000
b0 l
b0 -"
b0 2"
b0 <
b0 @
b0 F
b0 g
b0 *"
b1 I
b1 U
b1 `
b1 h
b1 ,"
b0 X
b0 ]
b0 b
1G
b0 #
b0 ?
b0 B
b0 P
b0 r
b0 v
b0 )"
b10010010000 c
b0 Q
b0 Y
b0 ^
b0 d
b0 s
b0 j
b0 t
b0 8"
b11 T
b11 _
b10 R
b10 [
b1 /"
b0 0"
b101 1"
b0 q
b0 y
b0 }
b0 7"
b10000 o
b10000 $"
b10000 &"
b1010001010000011 >
b1010001010000011 C
b1010001010000011 E
b1010001010000011 f
b1010001010000011 x
b1100 m
b1100 ~
b1100 #"
b10000 n
b10000 {
b10000 ""
b10000 +"
b1100 =
b1100 D
b1100 L
b1100 p
b1100 |
b1100 !"
b1100 ("
1$
#50000
0$
#55000
b0 I
b0 U
b0 `
b0 h
b0 ,"
b10 X
b10 ]
b10 b
b10010000100 c
b10011 T
b10011 _
b0 R
b0 [
b0 /"
b110 1"
b10100 o
b10100 $"
b10100 &"
b1100010011 >
b1100010011 C
b1100010011 E
b1100010011 f
b1100010011 x
b10000 m
b10000 ~
b10000 #"
b10100 n
b10100 {
b10100 ""
b10100 +"
b10000 =
b10000 D
b10000 L
b10000 p
b10000 |
b10000 !"
b10000 ("
1$
#60000
0$
#65000
b1 l
b1 -"
b1 2"
0G
b1 #
b1 ?
b1 B
b1 P
b1 r
b1 v
b1 )"
b1 j
b1 t
b1 8"
b1 0"
b111 1"
b1 q
b1 y
b1 }
b1 7"
b11000 o
b11000 $"
b11000 &"
b100000000001110010011 >
b100000000001110010011 C
b100000000001110010011 E
b100000000001110010011 f
b100000000001110010011 x
b10101 m
b10101 ~
b10101 #"
b11000 n
b11000 {
b11000 ""
b11000 +"
b10100 =
b10100 D
b10100 L
b10100 p
b10100 |
b10100 !"
b10100 ("
1$
#70000
0$
#75000
b10000 l
b10000 -"
b10000 2"
b10000000000000000000000000000000 <
b10000000000000000000000000000000 @
b10000000000000000000000000000000 F
b10000000000000000000000000000000 g
b10000000000000000000000000000000 *"
b10000 #
b10000 ?
b10000 B
b10000 P
b10000 r
b10000 v
b10000 )"
b10000 j
b10000 t
b10000 8"
b10000 0"
b1001 1"
b10000 q
b10000 y
b10000 }
b10000 7"
b11100 o
b11100 $"
b11100 &"
b1000000000000010010010011 >
b1000000000000010010010011 C
b1000000000000010010010011 E
b1000000000000010010010011 f
b1000000000000010010010011 x
b101000 m
b101000 ~
b101000 #"
b11100 n
b11100 {
b11100 ""
b11100 +"
b11000 =
b11000 D
b11000 L
b11000 p
b11000 |
b11000 !"
b11000 ("
1$
#80000
0$
#85000
b0 l
b0 -"
b0 2"
b0 <
b0 @
b0 F
b0 g
b0 *"
bx N
bx V
bx a
bx e
bx w
0O
1G
b0 #
b0 ?
b0 B
b0 P
b0 r
b0 v
b0 )"
1\
b1xx00000100 c
b10 Q
b10 Y
b10 ^
b10 d
b10 s
b1 !
b1 ;
b1 A
b1 H
b1 i
b1 3"
b1 6"
b1 j
b1 t
b1 8"
b110011 T
b110011 _
b111 R
b111 [
b101 /"
b111 0"
b1000 1"
bx q
bx y
bx }
bx 7"
b100000 o
b100000 $"
b100000 &"
b11100101111010000110011 >
b11100101111010000110011 C
b11100101111010000110011 E
b11100101111010000110011 f
b11100101111010000110011 x
bx m
bx ~
bx #"
b100000 n
b100000 {
b100000 ""
b100000 +"
b11100 =
b11100 D
b11100 L
b11100 p
b11100 |
b11100 !"
b11100 ("
1$
#90000
0$
#95000
1K
b101000 m
b101000 ~
b101000 #"
b1000 q
b1000 y
b1000 }
b1000 7"
0J
b10 N
b10 V
b10 a
b10 e
b10 w
1W
b1 X
b1 ]
b1 b
b0 j
b0 t
b0 8"
b1000001010 c
b1 Q
b1 Y
b1 ^
b1 d
b1 s
b0 !
b0 ;
b0 A
b0 H
b0 i
b0 3"
b0 6"
b1100011 T
b1100011 _
b0 R
b0 [
b1000 /"
b0 0"
b101000 o
b101000 $"
b101000 &"
b1000000010001100011 >
b1000000010001100011 C
b1000000010001100011 E
b1000000010001100011 f
b1000000010001100011 x
b100100 n
b100100 {
b100100 ""
b100100 +"
b100000 =
b100000 D
b100000 L
b100000 p
b100000 |
b100000 !"
b100000 ("
1$
#100000
0$
#105000
b10 l
b10 -"
b10 2"
0K
0G
b10 #
b10 ?
b10 B
b10 P
b10 r
b10 v
b10 )"
b0 Q
b0 Y
b0 ^
b0 d
b0 s
1J
bx N
bx V
bx a
bx e
bx w
0W
b10 X
b10 ]
b10 b
b1 j
b1 t
b1 8"
b1xx00000100 c
b1 k
b1 u
b1 4"
b1 !
b1 ;
b1 A
b1 H
b1 i
b1 3"
b1 6"
b110011 T
b110011 _
b111 /"
b111 0"
b111 1"
bx q
bx y
bx }
bx 7"
b101100 o
b101100 $"
b101100 &"
b11100111000001110110011 >
b11100111000001110110011 C
b11100111000001110110011 E
b11100111000001110110011 f
b11100111000001110110011 x
bx m
bx ~
bx #"
b101100 n
b101100 {
b101100 ""
b101100 +"
b101000 =
b101000 D
b101000 L
b101000 p
b101000 |
b101000 !"
b101000 ("
1$
#110000
0$
#115000
b100 l
b100 -"
b100 2"
b1 <
b1 @
b1 F
b1 g
b1 *"
b100 #
b100 ?
b100 B
b100 P
b100 r
b100 v
b100 )"
b10 j
b10 t
b10 8"
b10 k
b10 u
b10 4"
b10 !
b10 ;
b10 A
b10 H
b10 i
b10 3"
b10 6"
b110000 o
b110000 $"
b110000 &"
b110000 n
b110000 {
b110000 ""
b110000 +"
b101100 =
b101100 D
b101100 L
b101100 p
b101100 |
b101100 !"
b101100 ("
1$
#120000
0$
#125000
0G
b101111 m
b101111 ~
b101111 #"
b11111111111111111111111111111111 q
b11111111111111111111111111111111 y
b11111111111111111111111111111111 }
b11111111111111111111111111111111 7"
b1111 l
b1111 -"
b1111 2"
b0 N
b0 V
b0 a
b0 e
b0 w
1O
b0 Q
b0 Y
b0 ^
b0 d
b0 s
b10000000000000000000000 <
b10000000000000000000000 @
b10000000000000000000000 F
b10000000000000000000000 g
b10000000000000000000000 *"
0\
b10010000100 c
0Z
b1111 #
b1111 ?
b1111 B
b1111 P
b1111 r
b1111 v
b1111 )"
b11111111111111111111111111111111 j
b11111111111111111111111111111111 t
b11111111111111111111111111111111 8"
b10011 T
b10011 _
1S
b1001 /"
b11111 0"
b1001 1"
b10000 k
b10000 u
b10000 4"
b0 !
b0 ;
b0 A
b0 H
b0 i
b0 3"
b0 6"
b110100 o
b110100 $"
b110100 &"
b11111111111101001000010010010011 >
b11111111111101001000010010010011 C
b11111111111101001000010010010011 E
b11111111111101001000010010010011 f
b11111111111101001000010010010011 x
b110100 n
b110100 {
b110100 ""
b110100 +"
b110000 =
b110000 D
b110000 L
b110000 p
b110000 |
b110000 !"
b110000 ("
1$
#130000
0$
#135000
b1 Q
b1 Y
b1 ^
b1 d
b1 s
b1111 l
b1111 -"
b1111 2"
0J
b10 N
b10 V
b10 a
b10 e
b10 w
0O
1W
b1 X
b1 ]
b1 b
1\
b1000001010 c
b0 j
b0 t
b0 8"
b1111 #
b1111 ?
b1111 B
b1111 P
b1111 r
b1111 v
b1111 )"
b1100011 T
b1100011 _
0S
b0 0"
b1000 1"
b1000 q
b1000 y
b1000 }
b1000 7"
b1111 k
b1111 u
b1111 4"
b111000 o
b111000 $"
b111000 &"
b1001000010001100011 >
b1001000010001100011 C
b1001000010001100011 E
b1001000010001100011 f
b1001000010001100011 x
b111100 m
b111100 ~
b111100 #"
b111000 n
b111000 {
b111000 ""
b111000 +"
b110100 =
b110100 D
b110100 L
b110100 p
b110100 |
b110100 !"
b110100 ("
1$
#140000
0$
#145000
b111100 l
b111100 -"
b111100 2"
b0 Q
b0 Y
b0 ^
b0 d
b0 s
1K
b0 <
b0 @
b0 F
b0 g
b0 *"
1J
b11 N
b11 V
b11 a
b11 e
b11 w
b10 I
b10 U
b10 `
b10 h
b10 ,"
0W
b0 X
b0 ]
b0 b
1M
1G
b0 #
b0 ?
b0 B
b0 P
b0 r
b0 v
b0 )"
b11100100001 c
1Z
b0 k
b0 u
b0 4"
b1101111 T
b1101111 _
b111 R
b111 [
1S
b11111 /"
b101 0"
b0 1"
b11111111111111111111111111100100 q
b11111111111111111111111111100100 y
b11111111111111111111111111100100 }
b11111111111111111111111111100100 7"
b11100 o
b11100 $"
b11100 &"
b11111110010111111111000001101111 >
b11111110010111111111000001101111 C
b11111110010111111111000001101111 E
b11111110010111111111000001101111 f
b11111110010111111111000001101111 x
b11100 m
b11100 ~
b11100 #"
b111100 n
b111100 {
b111100 ""
b111100 +"
b111000 =
b111000 D
b111000 L
b111000 p
b111000 |
b111000 !"
b111000 ("
1$
#150000
0$
#155000
b0 <
b0 @
b0 F
b0 g
b0 *"
b10 Q
b10 Y
b10 ^
b10 d
b10 s
0K
1G
b0 #
b0 ?
b0 B
b0 P
b0 r
b0 v
b0 )"
bx N
bx V
bx a
bx e
bx w
b0 I
b0 U
b0 `
b0 h
b0 ,"
b10 X
b10 ]
b10 b
0M
b100 j
b100 t
b100 8"
b1xx00000100 c
0Z
b100 !
b100 ;
b100 A
b100 H
b100 i
b100 3"
b100 6"
b110011 T
b110011 _
0S
b101 /"
b111 0"
b1000 1"
bx q
bx y
bx }
bx 7"
b100000 o
b100000 $"
b100000 &"
b0 l
b0 -"
b0 2"
b11100101111010000110011 >
b11100101111010000110011 C
b11100101111010000110011 E
b11100101111010000110011 f
b11100101111010000110011 x
bx m
bx ~
bx #"
b100000 n
b100000 {
b100000 ""
b100000 +"
b11100 =
b11100 D
b11100 L
b11100 p
b11100 |
b11100 !"
b11100 ("
1$
#160000
0$
#165000
1K
b101000 m
b101000 ~
b101000 #"
b1000 q
b1000 y
b1000 }
b1000 7"
0J
b10 N
b10 V
b10 a
b10 e
b10 w
1W
b1 X
b1 ]
b1 b
b0 j
b0 t
b0 8"
b1000001010 c
b1 Q
b1 Y
b1 ^
b1 d
b1 s
b0 !
b0 ;
b0 A
b0 H
b0 i
b0 3"
b0 6"
b1100011 T
b1100011 _
b0 R
b0 [
b1000 /"
b0 0"
b101000 o
b101000 $"
b101000 &"
b1000000010001100011 >
b1000000010001100011 C
b1000000010001100011 E
b1000000010001100011 f
b1000000010001100011 x
b100100 n
b100100 {
b100100 ""
b100100 +"
b100000 =
b100000 D
b100000 L
b100000 p
b100000 |
b100000 !"
b100000 ("
1$
#170000
0$
#175000
b1000 l
b1000 -"
b1000 2"
b1000000000 <
b1000000000 @
b1000000000 F
b1000000000 g
b1000000000 *"
0K
0G
b1000 #
b1000 ?
b1000 B
b1000 P
b1000 r
b1000 v
b1000 )"
b0 Q
b0 Y
b0 ^
b0 d
b0 s
1J
bx N
bx V
bx a
bx e
bx w
0W
b10 X
b10 ]
b10 b
b100 j
b100 t
b100 8"
b1xx00000100 c
b100 k
b100 u
b100 4"
b100 !
b100 ;
b100 A
b100 H
b100 i
b100 3"
b100 6"
b110011 T
b110011 _
b111 /"
b111 0"
b111 1"
bx q
bx y
bx }
bx 7"
b101100 o
b101100 $"
b101100 &"
b11100111000001110110011 >
b11100111000001110110011 C
b11100111000001110110011 E
b11100111000001110110011 f
b11100111000001110110011 x
bx m
bx ~
bx #"
b101100 n
b101100 {
b101100 ""
b101100 +"
b101000 =
b101000 D
b101000 L
b101000 p
b101000 |
b101000 !"
b101000 ("
1$
#180000
0$
#185000
b10000 l
b10000 -"
b10000 2"
b10000000000000000000000000000000 <
b10000000000000000000000000000000 @
b10000000000000000000000000000000 F
b10000000000000000000000000000000 g
b10000000000000000000000000000000 *"
b10000 #
b10000 ?
b10000 B
b10000 P
b10000 r
b10000 v
b10000 )"
b1000 j
b1000 t
b1000 8"
b1000 k
b1000 u
b1000 4"
b1000 !
b1000 ;
b1000 A
b1000 H
b1000 i
b1000 3"
b1000 6"
b110000 o
b110000 $"
b110000 &"
b110000 n
b110000 {
b110000 ""
b110000 +"
b101100 =
b101100 D
b101100 L
b101100 p
b101100 |
b101100 !"
b101100 ("
1$
#190000
0$
#195000
0G
b101111 m
b101111 ~
b101111 #"
b11111111111111111111111111111111 q
b11111111111111111111111111111111 y
b11111111111111111111111111111111 }
b11111111111111111111111111111111 7"
b1110 l
b1110 -"
b1110 2"
b0 N
b0 V
b0 a
b0 e
b0 w
1O
b0 Q
b0 Y
b0 ^
b0 d
b0 s
b10000000000000000000000 <
b10000000000000000000000 @
b10000000000000000000000 F
b10000000000000000000000 g
b10000000000000000000000 *"
0\
b10010000100 c
0Z
b1110 #
b1110 ?
b1110 B
b1110 P
b1110 r
b1110 v
b1110 )"
b11111111111111111111111111111111 j
b11111111111111111111111111111111 t
b11111111111111111111111111111111 8"
b10011 T
b10011 _
1S
b1001 /"
b11111 0"
b1001 1"
b1111 k
b1111 u
b1111 4"
b0 !
b0 ;
b0 A
b0 H
b0 i
b0 3"
b0 6"
b110100 o
b110100 $"
b110100 &"
b11111111111101001000010010010011 >
b11111111111101001000010010010011 C
b11111111111101001000010010010011 E
b11111111111101001000010010010011 f
b11111111111101001000010010010011 x
b110100 n
b110100 {
b110100 ""
b110100 +"
b110000 =
b110000 D
b110000 L
b110000 p
b110000 |
b110000 !"
b110000 ("
1$
#200000
0$
#205000
b1 Q
b1 Y
b1 ^
b1 d
b1 s
b1110 l
b1110 -"
b1110 2"
0J
b10 N
b10 V
b10 a
b10 e
b10 w
0O
1W
b1 X
b1 ]
b1 b
1\
b1000001010 c
b0 j
b0 t
b0 8"
b1110 #
b1110 ?
b1110 B
b1110 P
b1110 r
b1110 v
b1110 )"
b1100011 T
b1100011 _
0S
b0 0"
b1000 1"
b1000 q
b1000 y
b1000 }
b1000 7"
b1110 k
b1110 u
b1110 4"
b111000 o
b111000 $"
b111000 &"
b1001000010001100011 >
b1001000010001100011 C
b1001000010001100011 E
b1001000010001100011 f
b1001000010001100011 x
b111100 m
b111100 ~
b111100 #"
b111000 n
b111000 {
b111000 ""
b111000 +"
b110100 =
b110100 D
b110100 L
b110100 p
b110100 |
b110100 !"
b110100 ("
1$
#210000
0$
#215000
b111100 l
b111100 -"
b111100 2"
b0 Q
b0 Y
b0 ^
b0 d
b0 s
1K
b0 <
b0 @
b0 F
b0 g
b0 *"
1J
b11 N
b11 V
b11 a
b11 e
b11 w
b10 I
b10 U
b10 `
b10 h
b10 ,"
0W
b0 X
b0 ]
b0 b
1M
1G
b0 #
b0 ?
b0 B
b0 P
b0 r
b0 v
b0 )"
b11100100001 c
1Z
b0 k
b0 u
b0 4"
b1101111 T
b1101111 _
b111 R
b111 [
1S
b11111 /"
b101 0"
b0 1"
b11111111111111111111111111100100 q
b11111111111111111111111111100100 y
b11111111111111111111111111100100 }
b11111111111111111111111111100100 7"
b11100 o
b11100 $"
b11100 &"
b11111110010111111111000001101111 >
b11111110010111111111000001101111 C
b11111110010111111111000001101111 E
b11111110010111111111000001101111 f
b11111110010111111111000001101111 x
b11100 m
b11100 ~
b11100 #"
b111100 n
b111100 {
b111100 ""
b111100 +"
b111000 =
b111000 D
b111000 L
b111000 p
b111000 |
b111000 !"
b111000 ("
1$
#220000
0$
